{
    "name": "QuickEventEditorAssembly",
    "references": [
        "GUID:8ffa096860afb8342bb7754180f0ba19"
    ],
    "includePlatforms": [
        "Editor"
    ],
    "excludePlatforms": [],
    "allowUnsafeCode": false,
    "overrideReferences": false,
    "precompiledReferences": [
        ""
    ],
    "autoReferenced": true,
    "defineConstraints": [],
    "versionDefines": []
}